out.vcd
$date
  Tue Dec 12 20:30:06 2017
$end
$version
  GHDL v0
$end
$timescale
  1 fs
$end
$var reg 5 ! mem_add[4:0] $end
$var reg 4 " col_en[3:0] $end
$var reg 8 # row_en[7:0] $end
$scope module d1 $end
$var reg 5 $ mem_add[4:0] $end
$var reg 4 % col_en[3:0] $end
$var reg 8 & row_en[7:0] $end
$var reg 5 ' nmem_add[4:0] $end
$scope module inv0 $end
$var reg 1 ( in1 $end
$var reg 1 ) out1 $end
$upscope $end
$scope module inv1 $end
$var reg 1 * in1 $end
$var reg 1 + out1 $end
$upscope $end
$scope module inv2 $end
$var reg 1 , in1 $end
$var reg 1 - out1 $end
$upscope $end
$scope module inv3 $end
$var reg 1 . in1 $end
$var reg 1 / out1 $end
$upscope $end
$scope module inv4 $end
$var reg 1 0 in1 $end
$var reg 1 1 out1 $end
$upscope $end
$scope module r_off0 $end
$var reg 1 2 in1 $end
$var reg 1 3 in2 $end
$var reg 1 4 in3 $end
$var reg 1 5 out1 $end
$upscope $end
$scope module r_off1 $end
$var reg 1 6 in1 $end
$var reg 1 7 in2 $end
$var reg 1 8 in3 $end
$var reg 1 9 out1 $end
$upscope $end
$scope module r_off2 $end
$var reg 1 : in1 $end
$var reg 1 ; in2 $end
$var reg 1 < in3 $end
$var reg 1 = out1 $end
$upscope $end
$scope module r_off3 $end
$var reg 1 > in1 $end
$var reg 1 ? in2 $end
$var reg 1 @ in3 $end
$var reg 1 A out1 $end
$upscope $end
$scope module r_off4 $end
$var reg 1 B in1 $end
$var reg 1 C in2 $end
$var reg 1 D in3 $end
$var reg 1 E out1 $end
$upscope $end
$scope module r_off5 $end
$var reg 1 F in1 $end
$var reg 1 G in2 $end
$var reg 1 H in3 $end
$var reg 1 I out1 $end
$upscope $end
$scope module r_off6 $end
$var reg 1 J in1 $end
$var reg 1 K in2 $end
$var reg 1 L in3 $end
$var reg 1 M out1 $end
$upscope $end
$scope module r_off7 $end
$var reg 1 N in1 $end
$var reg 1 O in2 $end
$var reg 1 P in3 $end
$var reg 1 Q out1 $end
$upscope $end
$scope module by_off0 $end
$var reg 1 R in1 $end
$var reg 1 S in2 $end
$var reg 1 T out1 $end
$upscope $end
$scope module by_off1 $end
$var reg 1 U in1 $end
$var reg 1 V in2 $end
$var reg 1 W out1 $end
$upscope $end
$scope module by_off2 $end
$var reg 1 X in1 $end
$var reg 1 Y in2 $end
$var reg 1 Z out1 $end
$upscope $end
$scope module by_off3 $end
$var reg 1 [ in1 $end
$var reg 1 \ in2 $end
$var reg 1 ] out1 $end
$upscope $end
$upscope $end
$enddefinitions $end
#0
b00000 !
b0001 "
b00000001 #
b00000 $
b0001 %
b00000001 &
b11111 '
0(
1)
0*
1+
0,
1-
0.
1/
00
11
02
03
04
15
06
07
18
09
0:
1;
0<
0=
0>
1?
1@
0A
1B
0C
0D
0E
1F
0G
1H
0I
1J
1K
0L
0M
1N
1O
1P
0Q
0R
0S
1T
0U
1V
0W
1X
0Y
0Z
1[
1\
0]
#1000000
b00001 !
b0010 "
b00001 $
b0010 %
b11110 '
1(
0)
1S
0T
0V
1W
1Y
0\
#2000000
b00010 !
b0100 "
b00010 $
b0100 %
b11101 '
0(
1)
1*
0+
1R
0S
1U
1V
0W
0X
0Y
1Z
0[
1\
#3000000
b00011 !
b1000 "
b00011 $
b1000 %
b11100 '
1(
0)
1S
0V
1Y
0Z
0\
1]
#4000000
b00100 !
b0001 "
b00000010 #
b00100 $
b0001 %
b00000010 &
b11011 '
0(
1)
0*
1+
1,
0-
14
05
08
19
1<
0@
1D
0H
1L
0P
0R
0S
1T
0U
1V
0W
1X
0Y
0Z
1[
1\
0]
#5000000
b00101 !
b0010 "
b00101 $
b0010 %
b11010 '
1(
0)
1S
0T
0V
1W
1Y
0\
#6000000
b00110 !
b0100 "
b00110 $
b0100 %
b11001 '
0(
1)
1*
0+
1R
0S
1U
1V
0W
0X
0Y
1Z
0[
1\
#7000000
b00111 !
b1000 "
b00111 $
b1000 %
b11000 '
1(
0)
1S
0V
1Y
0Z
0\
1]
#8000000
b01000 !
b0001 "
b00000100 #
b01000 $
b0001 %
b00000100 &
b10111 '
0(
1)
0*
1+
0,
1-
1.
0/
13
04
17
18
09
0;
0<
1=
0?
1@
1C
0D
1G
1H
0K
0L
0O
1P
0R
0S
1T
0U
1V
0W
1X
0Y
0Z
1[
1\
0]
#9000000
b01001 !
b0010 "
b01001 $
b0010 %
b10110 '
1(
0)
1S
0T
0V
1W
1Y
0\
#10000000
b01010 !
b0100 "
b01010 $
b0100 %
b10101 '
0(
1)
1*
0+
1R
0S
1U
1V
0W
0X
0Y
1Z
0[
1\
#11000000
b01011 !
b1000 "
b01011 $
b1000 %
b10100 '
1(
0)
1S
0V
1Y
0Z
0\
1]
#12000000
b01100 !
b0001 "
b00001000 #
b01100 $
b0001 %
b00001000 &
b10011 '
0(
1)
0*
1+
1,
0-
14
08
1<
0=
0@
1A
1D
0H
1L
0P
0R
0S
1T
0U
1V
0W
1X
0Y
0Z
1[
1\
0]
#13000000
b01101 !
b0010 "
b01101 $
b0010 %
b10010 '
1(
0)
1S
0T
0V
1W
1Y
0\
#14000000
b01110 !
b0100 "
b01110 $
b0100 %
b10001 '
0(
1)
1*
0+
1R
0S
1U
1V
0W
0X
0Y
1Z
0[
1\
#15000000
b01111 !
b1000 "
b01111 $
b1000 %
b10000 '
1(
0)
1S
0V
1Y
0Z
0\
1]
#16000000
b10000 !
b0001 "
b00010000 #
b10000 $
b0001 %
b00010000 &
b01111 '
0(
1)
0*
1+
0,
1-
0.
1/
10
01
12
03
04
16
07
18
1:
1;
0<
1>
1?
1@
0A
0B
0C
0D
1E
0F
0G
1H
0J
1K
0L
0N
1O
1P
0R
0S
1T
0U
1V
0W
1X
0Y
0Z
1[
1\
0]
#17000000
b10001 !
b0010 "
b10001 $
b0010 %
b01110 '
1(
0)
1S
0T
0V
1W
1Y
0\
#18000000
b10010 !
b0100 "
b10010 $
b0100 %
b01101 '
0(
1)
1*
0+
1R
0S
1U
1V
0W
0X
0Y
1Z
0[
1\
#19000000
b10011 !
b1000 "
b10011 $
b1000 %
b01100 '
1(
0)
1S
0V
1Y
0Z
0\
1]
#20000000
b10100 !
b0001 "
b00100000 #
b10100 $
b0001 %
b00100000 &
b01011 '
0(
1)
0*
1+
1,
0-
14
08
1<
0@
1D
0E
0H
1I
1L
0P
0R
0S
1T
0U
1V
0W
1X
0Y
0Z
1[
1\
0]
#21000000
b10101 !
b0010 "
b10101 $
b0010 %
b01010 '
1(
0)
1S
0T
0V
1W
1Y
0\
#22000000
b10110 !
b0100 "
b10110 $
b0100 %
b01001 '
0(
1)
1*
0+
1R
0S
1U
1V
0W
0X
0Y
1Z
0[
1\
#23000000
b10111 !
b1000 "
b10111 $
b1000 %
b01000 '
1(
0)
1S
0V
1Y
0Z
0\
1]
#24000000
b11000 !
b0001 "
b01000000 #
b11000 $
b0001 %
b01000000 &
b00111 '
0(
1)
0*
1+
0,
1-
1.
0/
13
04
17
18
0;
0<
0?
1@
1C
0D
1G
1H
0I
0K
0L
1M
0O
1P
0R
0S
1T
0U
1V
0W
1X
0Y
0Z
1[
1\
0]
#25000000
b11001 !
b0010 "
b11001 $
b0010 %
b00110 '
1(
0)
1S
0T
0V
1W
1Y
0\
#26000000
b11010 !
b0100 "
b11010 $
b0100 %
b00101 '
0(
1)
1*
0+
1R
0S
1U
1V
0W
0X
0Y
1Z
0[
1\
#27000000
b11011 !
b1000 "
b11011 $
b1000 %
b00100 '
1(
0)
1S
0V
1Y
0Z
0\
1]
#28000000
b11100 !
b0001 "
b10000000 #
b11100 $
b0001 %
b10000000 &
b00011 '
0(
1)
0*
1+
1,
0-
14
08
1<
0@
1D
0H
1L
0M
0P
1Q
0R
0S
1T
0U
1V
0W
1X
0Y
0Z
1[
1\
0]
#29000000
b11101 !
b0010 "
b11101 $
b0010 %
b00010 '
1(
0)
1S
0T
0V
1W
1Y
0\
#30000000
b11110 !
b0100 "
b11110 $
b0100 %
b00001 '
0(
1)
1*
0+
1R
0S
1U
1V
0W
0X
0Y
1Z
0[
1\
#31000000
b11111 !
b1000 "
b11111 $
b1000 %
b00000 '
1(
0)
1S
0V
1Y
0Z
0\
1]
